Final Project of LING-411
…
Sidenote: I always wondered how you built the class notes for the
course. In the last PS of the class Onur showed us how and I tried to
give it a shot. Many thanks to both of you to boost our creativity.

1.1 Lexical Decision and
Naming Dataset

The eng_lexdec_naming dataset contains data of a lexical
decision and lexical naming task. In a decision task, participants try
to determine whether a string is a word or not. Naming tasks involves
showing participants pictures and asking them to name the picture.
Reaction times are in miliseconds.

## # A tibble: 4,568 × 10
##    Word  RTlexdec RTnaming Familiarity WrittenFrequency FamilySize NounFrequency
##    <chr>    <dbl>    <dbl>       <dbl>            <dbl>      <dbl>         <dbl>
##  1 doe       695.     466.        2.37             50.0       4               49
##  2 stre…     547.     466.        5.6             669.        5              565
##  3 pork      617.     460.        3.87            151.        7.00           150
##  4 plug      633.     492.        3.93            133         9              170
##  5 prop      687.     477.        3.27            118.        4              125
##  6 dawn      584.     457.        3.73            592.        3              582
##  7 dog       527.     444.        5.67           1286.       40.0           2061
##  8 arc       741.     454.        3.1             133         5              144
##  9 skirt     536.     483.        4.43            376.        6.00           522
## 10 spree     740.     491.        3.27             30.0       2               32
## # ℹ 4,558 more rows
## # ℹ 3 more variables: VerbFrequency <dbl>, Voice <chr>, AgeSubject <chr>
…
